{
    "links": [
        {
            "categoria": "Inseticida",
            "link": "http://www.adapar.pr.gov.br/modules/conteudo/conteudo.php?conteudo=337"
        },
        {
            "categoria": "Herbicida",
            "link": "http://www.adapar.pr.gov.br/modules/conteudo/conteudo.php?conteudo=336"
        },
        {
            "categoria": "Fungicida",
            "link": "http://www.adapar.pr.gov.br/modules/conteudo/conteudo.php?conteudo=335"
        },
        {
            "categoria": "Outros",
            "link": "http://www.adapar.pr.gov.br/modules/conteudo/conteudo.php?conteudo=338"
        }
    ]
}